Version 4
SHEET 1 1192 784
WIRE 448 176 448 160
WIRE 304 240 288 240
WIRE 448 240 448 176
WIRE 448 240 304 240
WIRE 464 240 448 240
WIRE 288 256 288 240
WIRE 448 256 448 240
WIRE 304 304 304 240
WIRE 304 304 288 304
WIRE 464 304 464 240
WIRE 464 304 448 304
WIRE 240 336 224 336
WIRE 400 336 384 336
WIRE 224 368 224 336
WIRE 224 368 48 368
WIRE 288 368 288 352
WIRE 448 368 448 352
WIRE 448 368 288 368
WIRE 640 368 448 368
WIRE 672 368 640 368
WIRE 448 400 448 368
WIRE 544 448 448 448
WIRE 224 480 224 368
WIRE 400 480 224 480
WIRE 224 496 48 496
WIRE 384 496 384 336
WIRE 384 496 224 496
WIRE 448 528 448 496
WIRE 544 576 544 448
WIRE 544 576 448 576
WIRE 224 608 224 496
WIRE 400 608 224 608
WIRE 448 640 448 624
WIRE 544 640 544 576
WIRE 544 640 448 640
WIRE 448 704 448 640
FLAG 448 176 vdd
FLAG 448 704 vss
FLAG 640 368 Q
FLAG 48 368 in1
FLAG 48 496 in2
SYMBOL pmos018 240 256 R0
SYMATTR InstName M1
SYMATTR Value2 l={ll} w={{wp}*5/6} ad={450n*{wp}} as={450n*{wp}} pd={900n+{wp}} ps={1080n+{wp}}
SYMBOL pmos018 400 256 R0
SYMATTR InstName M2
SYMATTR Value2 l={ll} w={{wp}*5/6} ad={450n*{wp}} as={450n*{wp}} pd={900n+{wp}} ps={1080n+{wp}}
SYMBOL nmos018 400 400 R0
SYMATTR InstName M3
SYMATTR Value2 l={ll} w={wn} ad={450n*{wn}} as={450n*{wn}} pd={900n+{wn}} ps={1080n+{wn}}
SYMBOL nmos018 400 528 R0
SYMATTR InstName M4
SYMATTR Value2 l={ll} w={wn} ad={450n*{wn}} as={450n*{wn}} pd={900n+{wn}} ps={1080n+{wn}}
TEXT 120 168 Left 2 !.lib BU_180nm.lib
TEXT 544 168 Left 2 ;Parametres requis: \nll=longueur \nwn=largeur_nmos \nwp=largeur_pmos
